traffic_controller_tb.vcd
$date
   Thu Mar 06 07:58:28 2025
$end
$version
  P.20131013
$end
$timescale
  1ps
$end
$scope module traffic_controller_tb $end
$var wire 1 ! East_road [2] $end
$var wire 1 " East_road [1] $end
$var wire 1 # East_road [0] $end
$var wire 1 $ North_road [2] $end
$var wire 1 % North_road [1] $end
$var wire 1 & North_road [0] $end
$var wire 1 ' West_road [2] $end
$var wire 1 ( West_road [1] $end
$var wire 1 ) West_road [0] $end
$var wire 1 * South_road [2] $end
$var wire 1 + South_road [1] $end
$var wire 1 , South_road [0] $end
$var reg 1 - clk $end
$var reg 1 . rst $end
$var reg 4 / Emergency [3:0] $end
$var reg 4 0 Jam [3:0] $end
$var reg 4 1 Empty [3:0] $end
$scope module uut $end
$var wire 1 2 clk $end
$var wire 1 3 rst $end
$var wire 1 4 Emergency [3] $end
$var wire 1 5 Emergency [2] $end
$var wire 1 6 Emergency [1] $end
$var wire 1 7 Emergency [0] $end
$var wire 1 8 Jam [3] $end
$var wire 1 9 Jam [2] $end
$var wire 1 : Jam [1] $end
$var wire 1 ; Jam [0] $end
$var wire 1 < Empty [3] $end
$var wire 1 = Empty [2] $end
$var wire 1 > Empty [1] $end
$var wire 1 ? Empty [0] $end
$var reg 3 @ East_road [2:0] $end
$var reg 3 A North_road [2:0] $end
$var reg 3 B West_road [2:0] $end
$var reg 3 C South_road [2:0] $end
$var reg 3 D state [2:0] $end
$var reg 5 E count [4:0] $end
$upscope $end
$upscope $end
$enddefinitions $end
#0
$dumpvars
0"
0!
0-
0.
b0 /
b0 0
b0 1
b1 @
b100 A
b100 B
b100 C
b0 D
b0 E
1#
1$
0)
0(
1'
0,
0+
1*
03
07
02
04
0;
06
05
0&
0%
0=
09
0>
0?
08
0:
0<
$end
#5000
1-
12
#10000
0-
1.
13
02
#15000
1-
b1 E
12
#20000
0-
b1000 /
02
14
#25000
1-
b0 E
12
#30000
0-
02
#35000
1-
12
#40000
0-
b100 /
02
04
15
#45000
1!
1-
b100 @
b1 A
b10 D
0#
0$
12
1&
#50000
0-
02
#55000
1-
12
#60000
0-
b10 /
02
16
05
#65000
1-
b100 A
b1 B
b100 D
1$
1)
0'
12
0&
#70000
0-
02
#75000
1-
12
#80000
0-
b1 /
17
02
06
#85000
1-
b100 B
b1 C
b110 D
0)
1'
1,
0*
12
#90000
0-
02
#95000
1-
12
#100000
0-
b0 /
07
02
#105000
1-
b1 E
12
#110000
0-
b1000 0
02
18
#115000
0!
1-
b1 @
b100 C
b0 D
b11 E
1#
0,
1*
12
#120000
0-
02
#125000
1-
b101 E
12
#130000
0-
b100 0
02
19
08
#135000
1!
1-
b100 @
b1 A
b10 D
b111 E
0#
0$
12
1&
#140000
0-
02
#145000
1-
b1001 E
12
#150000
0-
b10 0
02
09
1:
#155000
1-
b100 A
b1 B
b100 D
b1011 E
1$
1)
0'
12
0&
#160000
0-
02
#165000
1-
b1101 E
12
#170000
0-
b1 0
02
1;
0:
#175000
1-
b100 B
b1 C
b110 D
b1111 E
0)
1'
1,
0*
12
#180000
0-
02
#185000
1-
b10001 E
12
#190000
0-
b0 0
02
0;
#195000
1-
b10010 E
12
#200000
0-
b1000 1
02
1<
#205000
1"
0!
1-
b10 @
b110 A
b100 C
b1 D
b0 E
0,
1*
12
1%
#210000
0-
02
#215000
1-
12
#220000
0-
b100 1
02
1=
0<
#225000
0"
1!
1-
b100 @
b10 A
b110 B
b11 D
0$
1(
12
#230000
0-
02
#235000
1-
12
#240000
0-
b10 1
02
0=
1>
#245000
1-
b100 A
b10 B
b101 D
1$
0'
12
0%
#250000
0-
02
#255000
1-
12
#260000
0-
b1 1
02
0>
1?
#265000
1"
1-
b110 @
b100 B
b111 D
0(
1'
12
#270000
0-
02
#275000
1-
12
#280000
0-
b0 1
02
0?
#285000
1-
b1 E
12
#290000
0-
02
#295000
1-
b10 E
12
#300000
0-
02
#305000
1-
b11 E
12
#310000
0-
02
#315000
0"
0!
1-
b1 @
b0 D
b0 E
1#
12
#320000
0-
02
#325000
1-
b1 E
12
